{
	"code":0,
	"data":{
		"childDepts":[
			{
				"childDepts":"",
				"createTime":"2022-08-15 16:04:37",
				"createUserId":"",
				"deleted":0,
				"deptName":"心脑血管",
				"director":"李华",
				"email":"",
				"id":"1559088583438532609",
				"mark":"",
				"parentDept":"1559088333076332545",
				"phone":"",
				"sort":0,
				"status":0,
				"updateTime":"2022-08-15 16:04:37",
				"updateUserId":""
			},
			{
				"childDepts":[
					{
						"childDepts":"",
						"createTime":"2021-02-26 15:39:38",
						"createUserId":"",
						"deleted":0,
						"deptName":"呼吸内科",
						"director":"",
						"email":"",
						"id":"1559088333193773057",
						"mark":"",
						"parentDept":"1559088333105692673",
						"phone":"",
						"sort":1,
						"status":0,
						"updateTime":"2021-03-01 09:20:23",
						"updateUserId":""
					},
					{
						"childDepts":"",
						"createTime":"2021-02-26 15:38:44",
						"createUserId":"",
						"deleted":0,
						"deptName":"消化内科",
						"director":"",
						"email":"",
						"id":"1559088333151830018",
						"mark":"",
						"parentDept":"1559088333105692673",
						"phone":"",
						"sort":2,
						"status":0,
						"updateTime":"2021-02-26 15:49:24",
						"updateUserId":""
					},
					{
						"childDepts":"",
						"createTime":"2021-02-26 15:39:04",
						"createUserId":"",
						"deleted":0,
						"deptName":"神经内科",
						"director":"",
						"email":"",
						"id":"1559088333172801538",
						"mark":"",
						"parentDept":"1559088333105692673",
						"phone":"",
						"sort":3,
						"status":0,
						"updateTime":"2021-02-26 15:49:30",
						"updateUserId":""
					},
					{
						"childDepts":"",
						"createTime":"2021-02-26 15:38:30",
						"createUserId":"",
						"deleted":0,
						"deptName":"心血管内科",
						"director":"",
						"email":"",
						"id":"1559088333130858497",
						"mark":"",
						"parentDept":"1559088333105692673",
						"phone":"",
						"sort":4,
						"status":0,
						"updateTime":"2021-03-01 09:20:37",
						"updateUserId":""
					},
					{
						"childDepts":"",
						"createTime":"2021-03-01 09:19:59",
						"createUserId":"",
						"deleted":0,
						"deptName":"血液内科",
						"director":"",
						"email":"",
						"id":"1559088333218938881",
						"mark":"",
						"parentDept":"1559088333105692673",
						"phone":"",
						"sort":5,
						"status":0,
						"updateTime":"2021-03-01 09:19:59",
						"updateUserId":""
					},
					{
						"childDepts":"",
						"createTime":"2021-03-01 09:21:07",
						"createUserId":"",
						"deleted":0,
						"deptName":"肾病内科",
						"director":"",
						"email":"",
						"id":"1559088333244104706",
						"mark":"",
						"parentDept":"1559088333105692673",
						"phone":"",
						"sort":6,
						"status":0,
						"updateTime":"2021-03-01 09:21:07",
						"updateUserId":""
					},
					{
						"childDepts":"",
						"createTime":"2021-03-01 09:21:22",
						"createUserId":"",
						"deleted":0,
						"deptName":"内分泌",
						"director":"",
						"email":"",
						"id":"1559088333265076226",
						"mark":"",
						"parentDept":"1559088333105692673",
						"phone":"",
						"sort":7,
						"status":0,
						"updateTime":"2021-03-01 09:21:30",
						"updateUserId":""
					}
				],
				"createTime":"2021-02-26 15:26:33",
				"createUserId":"",
				"deleted":0,
				"deptName":"内科",
				"director":"",
				"email":"",
				"id":"1559088333105692673",
				"mark":"",
				"parentDept":"1559088333076332545",
				"phone":"",
				"sort":1,
				"status":0,
				"updateTime":"2021-02-26 15:26:33",
				"updateUserId":""
			},
			{
				"childDepts":[
					{
						"childDepts":"",
						"createTime":"2021-02-26 15:36:10",
						"createUserId":"",
						"deleted":0,
						"deptName":"神经外科",
						"director":"",
						"email":"",
						"id":"1559088333311213569",
						"mark":"",
						"parentDept":"1559088333290242049",
						"phone":"",
						"sort":1,
						"status":0,
						"updateTime":"2021-02-26 15:49:44",
						"updateUserId":""
					},
					{
						"childDepts":"",
						"createTime":"2021-02-26 15:36:25",
						"createUserId":"",
						"deleted":0,
						"deptName":"胸外科",
						"director":"",
						"email":"",
						"id":"1559088333332185089",
						"mark":"",
						"parentDept":"1559088333290242049",
						"phone":"",
						"sort":2,
						"status":0,
						"updateTime":"2021-02-26 15:49:52",
						"updateUserId":""
					},
					{
						"childDepts":"",
						"createTime":"2021-02-26 15:36:42",
						"createUserId":"",
						"deleted":0,
						"deptName":"骨科",
						"director":"",
						"email":"",
						"id":"1559088333353156610",
						"mark":"",
						"parentDept":"1559088333290242049",
						"phone":"",
						"sort":3,
						"status":0,
						"updateTime":"2021-02-26 15:49:58",
						"updateUserId":""
					},
					{
						"childDepts":"",
						"createTime":"2021-02-26 15:36:57",
						"createUserId":"",
						"deleted":0,
						"deptName":"普通外科",
						"director":"",
						"email":"",
						"id":"1559088333374128130",
						"mark":"",
						"parentDept":"1559088333290242049",
						"phone":"",
						"sort":4,
						"status":0,
						"updateTime":"2021-02-26 15:50:04",
						"updateUserId":""
					},
					{
						"childDepts":"",
						"createTime":"2021-04-07 10:33:29",
						"createUserId":"",
						"deleted":0,
						"deptName":"手外科",
						"director":"张三",
						"email":"",
						"id":"1559088333395099650",
						"mark":"",
						"parentDept":"1559088333290242049",
						"phone":"",
						"sort":5,
						"status":0,
						"updateTime":"2021-04-07 10:33:46",
						"updateUserId":""
					}
				],
				"createTime":"2021-02-26 15:26:54",
				"createUserId":"",
				"deleted":0,
				"deptName":"外科",
				"director":"",
				"email":"",
				"id":"1559088333290242049",
				"mark":"",
				"parentDept":"1559088333076332545",
				"phone":"",
				"sort":2,
				"status":0,
				"updateTime":"2021-02-26 15:26:54",
				"updateUserId":""
			},
			{
				"childDepts":[
					{
						"childDepts":"",
						"createTime":"2021-02-26 15:34:52",
						"createUserId":"",
						"deleted":0,
						"deptName":"小儿消化科",
						"director":"",
						"email":"",
						"id":"1559088333437042690",
						"mark":"",
						"parentDept":"1559088333420265473",
						"phone":"",
						"sort":1,
						"status":0,
						"updateTime":"2021-02-26 15:50:19",
						"updateUserId":""
					},
					{
						"childDepts":"",
						"createTime":"2021-02-26 15:35:11",
						"createUserId":"",
						"deleted":0,
						"deptName":"小儿免疫科",
						"director":"",
						"email":"",
						"id":"1559088333458014210",
						"mark":"",
						"parentDept":"1559088333420265473",
						"phone":"",
						"sort":2,
						"status":0,
						"updateTime":"2021-02-26 15:50:26",
						"updateUserId":""
					},
					{
						"childDepts":"",
						"createTime":"2021-02-26 15:35:31",
						"createUserId":"",
						"deleted":0,
						"deptName":"小儿呼吸科",
						"director":"",
						"email":"",
						"id":"1559088333478985729",
						"mark":"",
						"parentDept":"1559088333420265473",
						"phone":"",
						"sort":3,
						"status":0,
						"updateTime":"2021-02-26 15:50:33",
						"updateUserId":""
					}
				],
				"createTime":"2021-02-26 15:29:05",
				"createUserId":"",
				"deleted":0,
				"deptName":"儿科",
				"director":"",
				"email":"",
				"id":"1559088333420265473",
				"mark":"",
				"parentDept":"1559088333076332545",
				"phone":"",
				"sort":3,
				"status":0,
				"updateTime":"2021-02-26 15:29:05",
				"updateUserId":""
			},
			{
				"childDepts":[
					{
						"childDepts":"",
						"createTime":"2021-02-26 15:37:22",
						"createUserId":"",
						"deleted":0,
						"deptName":"精神病科",
						"director":"",
						"email":"",
						"id":"1559088333529317378",
						"mark":"",
						"parentDept":"1559088333499957249",
						"phone":"",
						"sort":1,
						"status":0,
						"updateTime":"2021-02-26 15:50:44",
						"updateUserId":""
					},
					{
						"childDepts":"",
						"createTime":"2021-02-26 15:37:58",
						"createUserId":"",
						"deleted":0,
						"deptName":"精神康复科",
						"director":"",
						"email":"",
						"id":"1559088333550288897",
						"mark":"",
						"parentDept":"1559088333499957249",
						"phone":"",
						"sort":2,
						"status":0,
						"updateTime":"2021-02-26 15:50:52",
						"updateUserId":""
					}
				],
				"createTime":"2021-02-26 15:29:24",
				"createUserId":"",
				"deleted":0,
				"deptName":"精神科",
				"director":"",
				"email":"",
				"id":"1559088333499957249",
				"mark":"",
				"parentDept":"1559088333076332545",
				"phone":"",
				"sort":4,
				"status":0,
				"updateTime":"2021-02-26 15:29:24",
				"updateUserId":""
			},
			{
				"childDepts":[
					{
						"childDepts":"",
						"createTime":"2021-02-26 15:41:15",
						"createUserId":"",
						"deleted":0,
						"deptName":"妇科",
						"director":"",
						"email":"",
						"id":"1559088333600620546",
						"mark":"",
						"parentDept":"1559088333575454721",
						"phone":"",
						"sort":1,
						"status":0,
						"updateTime":"2021-02-26 15:51:01",
						"updateUserId":""
					},
					{
						"childDepts":"",
						"createTime":"2021-02-26 15:41:29",
						"createUserId":"",
						"deleted":0,
						"deptName":"产科",
						"director":"",
						"email":"",
						"id":"1559088333625786370",
						"mark":"",
						"parentDept":"1559088333575454721",
						"phone":"",
						"sort":2,
						"status":0,
						"updateTime":"2021-02-26 15:51:10",
						"updateUserId":""
					}
				],
				"createTime":"2021-02-26 15:30:57",
				"createUserId":"",
				"deleted":0,
				"deptName":"妇产科",
				"director":"",
				"email":"",
				"id":"1559088333575454721",
				"mark":"",
				"parentDept":"1559088333076332545",
				"phone":"",
				"sort":5,
				"status":0,
				"updateTime":"2021-02-26 15:30:57",
				"updateUserId":""
			},
			{
				"childDepts":[
					{
						"childDepts":"",
						"createTime":"2021-02-26 15:40:30",
						"createUserId":"",
						"deleted":0,
						"deptName":"动物源性传染病科",
						"director":"",
						"email":"",
						"id":"1559088333688700929",
						"mark":"",
						"parentDept":"1559088333646757889",
						"phone":"",
						"sort":1,
						"status":0,
						"updateTime":"2021-02-26 15:51:44",
						"updateUserId":""
					},
					{
						"childDepts":"",
						"createTime":"2021-02-26 15:40:04",
						"createUserId":"",
						"deleted":0,
						"deptName":"呼吸道传染病科",
						"director":"",
						"email":"",
						"id":"1559088333667729410",
						"mark":"",
						"parentDept":"1559088333646757889",
						"phone":"",
						"sort":1,
						"status":0,
						"updateTime":"2021-02-26 15:51:34",
						"updateUserId":""
					}
				],
				"createTime":"2021-02-26 15:32:00",
				"createUserId":"",
				"deleted":0,
				"deptName":"传染科",
				"director":"",
				"email":"",
				"id":"1559088333646757889",
				"mark":"",
				"parentDept":"1559088333076332545",
				"phone":"",
				"sort":6,
				"status":0,
				"updateTime":"2021-02-26 15:32:00",
				"updateUserId":""
			},
			{
				"childDepts":[
					{
						"childDepts":"",
						"createTime":"2021-02-26 15:33:58",
						"createUserId":"",
						"deleted":0,
						"deptName":"性传播疾病科",
						"director":"",
						"email":"",
						"id":"1559088333734838273",
						"mark":"",
						"parentDept":"1559088333709672450",
						"phone":"",
						"sort":1,
						"status":0,
						"updateTime":"2021-02-26 15:51:19",
						"updateUserId":""
					},
					{
						"childDepts":"",
						"createTime":"2021-02-26 15:34:10",
						"createUserId":"",
						"deleted":0,
						"deptName":"皮肤病科",
						"director":"",
						"email":"",
						"id":"1559088333751615489",
						"mark":"",
						"parentDept":"1559088333709672450",
						"phone":"",
						"sort":2,
						"status":0,
						"updateTime":"2021-02-26 15:51:25",
						"updateUserId":""
					}
				],
				"createTime":"2021-02-26 15:33:46",
				"createUserId":"",
				"deleted":0,
				"deptName":"皮肤科",
				"director":"",
				"email":"",
				"id":"1559088333709672450",
				"mark":"",
				"parentDept":"1559088333076332545",
				"phone":"",
				"sort":7,
				"status":0,
				"updateTime":"2021-02-26 15:33:46",
				"updateUserId":""
			},
			{
				"childDepts":"",
				"createTime":"2021-03-01 18:28:22",
				"createUserId":"",
				"deleted":0,
				"deptName":"其他",
				"director":"",
				"email":"",
				"id":"1559088333776781313",
				"mark":"",
				"parentDept":"1559088333076332545",
				"phone":"",
				"sort":8,
				"status":0,
				"updateTime":"2021-03-01 18:28:22",
				"updateUserId":""
			}
		],
		"createTime":"2022-08-15 16:03:37",
		"createUserId":"",
		"deleted":0,
		"deptName":"test-yahui",
		"director":"yangyahui",
		"email":"",
		"id":"1559088333076332545",
		"mark":"根目录",
		"parentDept":"0",
		"phone":"15546224504",
		"sort":1,
		"status":0,
		"updateTime":"2022-08-15 16:03:37",
		"updateUserId":""
	},
	"message":"成功"
}